%YAML 1.1
%TAG !u! tag:unity3d.com,2011:
--- !u!1 &5260872073022937924
GameObject:
  m_ObjectHideFlags: 0
  m_CorrespondingSourceObject: {fileID: 0}
  m_PrefabInstance: {fileID: 0}
  m_PrefabAsset: {fileID: 0}
  serializedVersion: 6
  m_Component:
  - component: {fileID: 5260872073022937931}
  - component: {fileID: 6927426902160860740}
  - component: {fileID: -835378944803448424}
  m_Layer: 0
  m_Name: RightHandPrefab
  m_TagString: Untagged
  m_Icon: {fileID: 0}
  m_NavMeshLayer: 0
  m_StaticEditorFlags: 0
  m_IsActive: 1
--- !u!4 &5260872073022937931
Transform:
  m_ObjectHideFlags: 0
  m_CorrespondingSourceObject: {fileID: 0}
  m_PrefabInstance: {fileID: 0}
  m_PrefabAsset: {fileID: 0}
  m_GameObject: {fileID: 5260872073022937924}
  m_LocalRotation: {x: 0, y: 0, z: 0, w: 1}
  m_LocalPosition: {x: 0, y: 0, z: 0}
  m_LocalScale: {x: 1, y: 1, z: 1}
  m_Children:
  - {fileID: 5659026076989293510}
  m_Father: {fileID: 0}
  m_RootOrder: 0
  m_LocalEulerAnglesHint: {x: 0, y: 0, z: 0}
--- !u!95 &6927426902160860740
Animator:
  serializedVersion: 3
  m_ObjectHideFlags: 0
  m_CorrespondingSourceObject: {fileID: 0}
  m_PrefabInstance: {fileID: 0}
  m_PrefabAsset: {fileID: 0}
  m_GameObject: {fileID: 5260872073022937924}
  m_Enabled: 1
  m_Avatar: {fileID: 0}
  m_Controller: {fileID: 9100000, guid: a7875bec76e99f04783066c6686729b2, type: 2}
  m_CullingMode: 0
  m_UpdateMode: 0
  m_ApplyRootMotion: 0
  m_LinearVelocityBlending: 0
  m_WarningMessage: 
  m_HasTransformHierarchy: 1
  m_AllowConstantClipSamplingOptimization: 1
  m_KeepAnimatorControllerStateOnDisable: 0
--- !u!114 &-835378944803448424
MonoBehaviour:
  m_ObjectHideFlags: 0
  m_CorrespondingSourceObject: {fileID: 0}
  m_PrefabInstance: {fileID: 0}
  m_PrefabAsset: {fileID: 0}
  m_GameObject: {fileID: 5260872073022937924}
  m_Enabled: 1
  m_EditorHideFlags: 0
  m_Script: {fileID: 11500000, guid: ecf9e2fbbe9d00b48b19fb84cecd331f, type: 3}
  m_Name: 
  m_EditorClassIdentifier: 
  handType: 1
  triggerButton:
    m_UseReference: 1
    m_Action:
      m_Name: Trigger Button
      m_Type: 0
      m_ExpectedControlType: 
      m_Id: 256af644-c6cd-4958-9400-fb4403b7fb1a
      m_Processors: 
      m_Interactions: 
      m_SingletonActionBindings: []
      m_Flags: 0
    m_Reference: {fileID: -5142273417206060439, guid: c348712bda248c246b8c49b3db54643f, type: 3}
  gripButton:
    m_UseReference: 1
    m_Action:
      m_Name: Grip Button
      m_Type: 0
      m_ExpectedControlType: 
      m_Id: 61004705-6f75-47c4-9eb0-3ba1a28c1095
      m_Processors: 
      m_Interactions: 
      m_SingletonActionBindings: []
      m_Flags: 0
    m_Reference: {fileID: 149820678669522987, guid: c348712bda248c246b8c49b3db54643f, type: 3}
--- !u!1001 &5260872071308895277
PrefabInstance:
  m_ObjectHideFlags: 0
  serializedVersion: 2
  m_Modification:
    m_TransformParent: {fileID: 5260872073022937931}
    m_Modifications:
    - target: {fileID: -8679921383154817045, guid: b1f867ecedc13364dbd6d531856c2cfa, type: 3}
      propertyPath: m_RootOrder
      value: 0
      objectReference: {fileID: 0}
    - target: {fileID: -8679921383154817045, guid: b1f867ecedc13364dbd6d531856c2cfa, type: 3}
      propertyPath: m_LocalScale.x
      value: -1
      objectReference: {fileID: 0}
    - target: {fileID: -8679921383154817045, guid: b1f867ecedc13364dbd6d531856c2cfa, type: 3}
      propertyPath: m_LocalPosition.x
      value: 0
      objectReference: {fileID: 0}
    - target: {fileID: -8679921383154817045, guid: b1f867ecedc13364dbd6d531856c2cfa, type: 3}
      propertyPath: m_LocalPosition.y
      value: 0.015
      objectReference: {fileID: 0}
    - target: {fileID: -8679921383154817045, guid: b1f867ecedc13364dbd6d531856c2cfa, type: 3}
      propertyPath: m_LocalPosition.z
      value: 0
      objectReference: {fileID: 0}
    - target: {fileID: -8679921383154817045, guid: b1f867ecedc13364dbd6d531856c2cfa, type: 3}
      propertyPath: m_LocalRotation.w
      value: 0.7071068
      objectReference: {fileID: 0}
    - target: {fileID: -8679921383154817045, guid: b1f867ecedc13364dbd6d531856c2cfa, type: 3}
      propertyPath: m_LocalRotation.x
      value: 0
      objectReference: {fileID: 0}
    - target: {fileID: -8679921383154817045, guid: b1f867ecedc13364dbd6d531856c2cfa, type: 3}
      propertyPath: m_LocalRotation.y
      value: 0
      objectReference: {fileID: 0}
    - target: {fileID: -8679921383154817045, guid: b1f867ecedc13364dbd6d531856c2cfa, type: 3}
      propertyPath: m_LocalRotation.z
      value: -0.7071068
      objectReference: {fileID: 0}
    - target: {fileID: -8679921383154817045, guid: b1f867ecedc13364dbd6d531856c2cfa, type: 3}
      propertyPath: m_LocalEulerAnglesHint.x
      value: 0
      objectReference: {fileID: 0}
    - target: {fileID: -8679921383154817045, guid: b1f867ecedc13364dbd6d531856c2cfa, type: 3}
      propertyPath: m_LocalEulerAnglesHint.y
      value: 0
      objectReference: {fileID: 0}
    - target: {fileID: -8679921383154817045, guid: b1f867ecedc13364dbd6d531856c2cfa, type: 3}
      propertyPath: m_LocalEulerAnglesHint.z
      value: -90
      objectReference: {fileID: 0}
    - target: {fileID: 919132149155446097, guid: b1f867ecedc13364dbd6d531856c2cfa, type: 3}
      propertyPath: m_Name
      value: LeftHand
      objectReference: {fileID: 0}
    m_RemovedComponents: []
  m_SourcePrefab: {fileID: 100100000, guid: b1f867ecedc13364dbd6d531856c2cfa, type: 3}
--- !u!4 &5659026076989293510 stripped
Transform:
  m_CorrespondingSourceObject: {fileID: -8679921383154817045, guid: b1f867ecedc13364dbd6d531856c2cfa, type: 3}
  m_PrefabInstance: {fileID: 5260872071308895277}
  m_PrefabAsset: {fileID: 0}
